com\service\ProductsServiceImp.class
com\config\WebConfig.class
com\dao\OrderDaoImp.class
com\controller\OrderController.class
com\dao\OrderDao.class
com\model\Orders.class
com\service\OrderServiceImp.class
com\service\OrderService.class
com\model\Products.class
com\dao\ProductDao.class
com\controller\ProductsController.class
Utils\Utilities.class
com\dao\ProductsDaoImp.class
com\config\AppConfig.class
com\config\AppInitializer.class
com\service\ProductsService.class
