C:\Users\Derian\workspace\maven-web-project-cafeteria\src\main\java\com\service\ProductsService.java
C:\Users\Derian\workspace\maven-web-project-cafeteria\src\main\java\Utils\Utilities.java
C:\Users\Derian\workspace\maven-web-project-cafeteria\src\main\java\com\config\AppConfig.java
C:\Users\Derian\workspace\maven-web-project-cafeteria\src\main\java\com\controller\OrderController.java
C:\Users\Derian\workspace\maven-web-project-cafeteria\src\main\java\com\service\OrderService.java
C:\Users\Derian\workspace\maven-web-project-cafeteria\src\main\java\com\service\ProductsServiceImp.java
C:\Users\Derian\workspace\maven-web-project-cafeteria\src\main\java\com\dao\OrderDaoImp.java
C:\Users\Derian\workspace\maven-web-project-cafeteria\src\main\java\com\model\Products.java
C:\Users\Derian\workspace\maven-web-project-cafeteria\src\main\java\com\service\OrderServiceImp.java
C:\Users\Derian\workspace\maven-web-project-cafeteria\src\main\java\com\model\Orders.java
C:\Users\Derian\workspace\maven-web-project-cafeteria\src\main\java\com\dao\OrderDao.java
C:\Users\Derian\workspace\maven-web-project-cafeteria\src\main\java\com\dao\ProductDao.java
C:\Users\Derian\workspace\maven-web-project-cafeteria\src\main\java\com\config\AppInitializer.java
C:\Users\Derian\workspace\maven-web-project-cafeteria\src\main\java\com\config\WebConfig.java
C:\Users\Derian\workspace\maven-web-project-cafeteria\src\main\java\com\controller\ProductsController.java
C:\Users\Derian\workspace\maven-web-project-cafeteria\src\main\java\com\dao\ProductsDaoImp.java
